<div class="msg">
    <span>%@
    </span>
</div>
<div class="storyAttachment titleless hasMedia fullWidthPhoto" title="Mobile Uploads">
    <div>
        <div class="storyAttachmentMedia">
            <a class="darkTouch" href='http://null/clickPhoto/%@'>
                <img id="u_7g622c_g" src='%@' style="background-color: rgb(216, 220, 230); %@ height: auto; %@;>
                </img>
            </a>
        </div>
        <div class="clear">
        </div>
    </div>
</div>