<hr/>
<div class="ib title">
    <!-- //comment id -->
    <a class="darkTouch l" aria-hidden="true" name="%@">
    
    <!-- //iduser - avatar -->
    
        <i class="img profpic" _mark="image%@" style="background:#d8dce6 url(&quot;%@&quot;) no-repeat center;background-size:34px;-webkit-background-size:34px;width:34px;height:34px;" role="img"></i>
    </a>
    
    <div class="c">
        <h1 class="voiceTitle">
            <a class="actor-link" data-sigil="page-transition">
                <strong class="actor">
                
                    <!-- //iduser - name -->

                    <div class="name%@">%@
                    </div>
                </strong>
            </a>
        </h1>
        
        <div class="actions">
            <!-- //fix all message -->

            <div class="msg">
                <span>%@
                </span>
                </div>
            
        </div>
    </div>
</div>

<div class="actions mfss fcg">
    <span class="async_cmt_like" id="like_479823288760237_479939935415239">
    
        <span class="cmt_like_def fcg">
            <a class="touchable" href="%@%@" role="button" name="%@">
                <strong>%@
                </strong>
            </a>
        </span>
    </span>
    &nbsp;

    <span role="separator" aria-hidden="true">%@.
    </span>
    &nbsp;
    
    <abbr>%@
    
    </abbr>
</div>


