<article class="fullwidth carded _51s story async_like voice acw abb" id="u_mcwu0y_1">
<div class="msg">
    <center>
        <span>
            %@
        </span>
        <br/>
        <span>
            <b>%@</b>
        </span>
        <br/>
        <a class="touchable" href="http://null/Undohide/%@" role="button">
            <img src="%@" width="85" height="30"/>
        </a>
    </center>
</div>
</article>