<article id="u_mcwu0y_1" class="fullwidth carded _51s story async_like voice acw abb" style="margin-top: -1px; margin-right: 0px; margin-bottom: 0px; border: 1px solid #ccc;" onclick="clickTweet(this,'http://null/clickRow/%@')">
<a>
%@
					<div class="ib">
						<div class="c" style="float: left;>
							<a href="http://null/clickRow/" name="374941895719657472" aria-hidden="true"
								class="darkTouch l"> <i role="img"
								style="-webkit-border-radius: 3px; -moz-border-radius: 3px; border-radius: 3px; background: #d8dce6 url(%@) no-repeat center; background-size: 34px; -webkit-background-size: 34px; width: 34px; height: 34px;"
								_mark="image " class="img profpic"></i> </a>
						</div>
						<div class="c" style="float: left; margin-left: 2px; margin-top: -4px; width: %@;">
                            <div class="c" style="float: left; margin-left: 2px; display: inline-block; line-height: 1.5; overflow: hidden; text-overflow: ellipsis; vertical-align: top; white-space: nowrap; max-width:%@; min-width: %@;">
								<h1 class="voiceTitle">
									<strong class="actor"><a href="http://null/clickRow/"
										data-sigil="page-transition" class="actor-link">%@</a>
									</strong>
									<span class="mfss fcg"> %@</span>
								</h1>
							</div>
							<div class="mfss fcg" style="float: right;right:5px; margin-top: 2px;">%@%@</div>

							<div class="msg" style="clear: both; width: %@">
								<span>%@</span>
							</div>
						</div>
					</div>
					<div style="clear: both;"></div> 
                    </a>
			</article>