<div class="msg"><span style=font-size:20px;><!-- DETAILS_TEXT --></span>
</div>
<div class="actions"><span class="mfss1 fcg" style="font-size: 16px;"><!-- DETAILS_TIME --></span>
</div>
<!-- TAG_FOR_PHOTO_OR_VIDEO -->
<div style="margin:5px 0 5px 0px; padding:9px 0 5px 0px; width: 100%; border-top: 2px solid #ccc;">
	<div style="float: left; margin-left: 10px;">
		<b><span style="font-size: 14px;"><!-- RETWEET_COUNT --></span></b>
		<span style="font-size: 14px;"> <!-- RETWEET_OR_RETWEETS --></span>
	</div>
	<div style="float: left; margin-left: 30px;">
		<b><span style="font-size: 14px;"><!-- FAVORITE_COUNT --></span></b>
		<span style="font-size: 14px;"> <!-- FAVORITE_OR_FAVORITES --></span>
	</div>
</div>
<div style="clear: both;"></div>
<div style="display:-webkit-box;margin:5px 0 5px 0px; padding:0; width: 100%; border-top: 2px solid #ccc;">
	<div style="width:13%;margin: 10px 0 0 0px;"></div>
	<div style="width:23%;margin: 10px 0 0 0px;"><a href="http://null/reply"><img src="file:///android_asset/image/btn_reply.png" style="height: 24px;width: 28px;"/></a></div>
	<div style="width:23%; margin: 10px 0 0 0px;"><a href="<!-- HREF_ICON_RETWEET -->"><img src="<!-- ICON_RETWEET -->" style="height: 24px;width: 28px;"/></a></div>
	<div style="width:23%; margin: 6px 0 0 0px;"><a href="http://null/favorite"><img src="<!-- ICON_FAVORITE -->" style="height: 32px;width: 32px;"/></a></div>
	<div style="width:18%; margin: 8px 0 0 0px;"><a href="http://null/more"><img src="file:///android_asset/image/btn_more.png" style="height: 32px;width: 32px;"/></a></div>
	<div style="clear: both;"></div>
</div>
</article>