<div  style="background-color:'#ff000000';
        position:absolute;
        opacity: 0.1;
        filter:alpha(opacity=10);
        width: 100%;
        margin-left:-7px;margin-right:10px;
        height: 505px;" onclick="clickIframe('<!-- URL_VIDEO -->')"></div>
<iframe id="idframe" src="<!-- URL_VIDEO -->" width="100%" height="500px" onload="iframeclick()"></iframe>